…
step_holiday() - date 변수에서 공휴일에 관한 이진변수 새롭게 생성

holidays = c(‘LaborDay’, ‘NewYearDay’, ‘ChristmasDay’)

holidays = timeDate::listHolidays(‘US’)

examples <- data.frame(someday = ymd("2000-12-20") + days(0:40))
holiday_rec <- recipe(~ someday, examples) %>%
    step_holiday(all_predictors())

holiday_rec <- prep(holiday_rec, training = examples)
holiday_values <- bake(holiday_rec, new_data = examples)
holiday_values

## # A tibble: 41 x 4
##    someday    someday_LaborDay someday_NewYearsDay someday_ChristmasDay
##    <date>                <dbl>               <dbl>                <dbl>
##  1 2000-12-20                0                   0                    0
##  2 2000-12-21                0                   0                    0
##  3 2000-12-22                0                   0                    0
##  4 2000-12-23                0                   0                    0
##  5 2000-12-24                0                   0                    0
##  6 2000-12-25                0                   0                    1
##  7 2000-12-26                0                   0                    0
##  8 2000-12-27                0                   0                    0
##  9 2000-12-28                0                   0                    0
## 10 2000-12-29                0                   0                    0
## # ... with 31 more rows
…
Bake

recipe, prep을 거쳐서 전처리된 데이터를 이용해서 적용을 해보는 단계이다.

데이터 전처리를 완료한 결과를 보고 싶으면 bake 함수를 이용하면 되는데 training data를 기준으로 이전에 데이터 전처리를 했기 때문에 new_data = training set을 넣고 중복 계산할 필요가 없다.

bake(simple_ames, new_data = NULL)

## # A tibble: 2,346 x 35
##    Gr_Liv_Area Year_Built Sale_Price Neighborhood_College_C~ Neighborhood_Old_T~
##          <dbl>      <int>      <dbl>                   <dbl>               <dbl>
##  1        3.22       1960       5.33                       0                   0
##  2        2.95       1961       5.02                       0                   0
##  3        3.12       1958       5.24                       0                   0
##  4        3.21       1997       5.28                       0                   0
##  5        3.21       1998       5.29                       0                   0
##  6        3.13       2001       5.33                       0                   0
##  7        3.11       1992       5.28                       0                   0
##  8        3.21       1995       5.37                       0                   0
##  9        3.22       1993       5.25                       0                   0
## 10        3.17       1998       5.26                       0                   0
## # ... with 2,336 more rows, and 30 more variables: Neighborhood_Edwards <dbl>,
## #   Neighborhood_Somerset <dbl>, Neighborhood_Northridge_Heights <dbl>,
## #   Neighborhood_Gilbert <dbl>, Neighborhood_Sawyer <dbl>,
## #   Neighborhood_Northwest_Ames <dbl>, Neighborhood_Sawyer_West <dbl>,
## #   Neighborhood_Mitchell <dbl>, Neighborhood_Brookside <dbl>,
## #   Neighborhood_Crawford <dbl>, Neighborhood_Iowa_DOT_and_Rail_Road <dbl>,
## #   Neighborhood_Timberland <dbl>, Neighborhood_Northridge <dbl>,
## #   Neighborhood_Stone_Brook <dbl>,
## #   Neighborhood_South_and_West_of_Iowa_State_University <dbl>,
…
test 데이터를 기준으로 전처리를 진행할 때 new_data = test set을 넣어주기만 하면 recipe, prep을 재지정해줄 필요 없이 곧바로 데이터 전처리가 가능하다.

test_ex <- bake(simple_ames, new_data = ames_test)
names(test_ex) %>% head()

## [1] "Gr_Liv_Area"                "Year_Built"                
## [3] "Sale_Price"                 "Neighborhood_College_Creek"
## [5] "Neighborhood_Old_Town"      "Neighborhood_Edwards"

test_ex

## # A tibble: 584 x 35
##    Gr_Liv_Area Year_Built Sale_Price Neighborhood_College_C~ Neighborhood_Old_T~
##          <dbl>      <int>      <dbl>                   <dbl>               <dbl>
##  1        3.32       1968       5.39                       0                   0
##  2        3.26       1999       5.28                       0                   0
##  3        3.07       1992       5.27                       0                   0
##  4        3.13       1990       5.23                       0                   0
##  5        3.13       1999       5.26                       0                   0
##  6        3.04       1971       5.02                       0                   0
##  7        3.23       2007       5.49                       0                   0
##  8        3.12       2005       5.30                       0                   0
##  9        3.29       2002       5.34                       0                   0
## 10        3.39       1998       5.55                       0                   0
## # ... with 574 more rows, and 30 more variables: Neighborhood_Edwards <dbl>,
## #   Neighborhood_Somerset <dbl>, Neighborhood_Northridge_Heights <dbl>,
## #   Neighborhood_Gilbert <dbl>, Neighborhood_Sawyer <dbl>,
## #   Neighborhood_Northwest_Ames <dbl>, Neighborhood_Sawyer_West <dbl>,
## #   Neighborhood_Mitchell <dbl>, Neighborhood_Brookside <dbl>,
## #   Neighborhood_Crawford <dbl>, Neighborhood_Iowa_DOT_and_Rail_Road <dbl>,
## #   Neighborhood_Timberland <dbl>, Neighborhood_Northridge <dbl>,
## #   Neighborhood_Stone_Brook <dbl>,
## #   Neighborhood_South_and_West_of_Iowa_State_University <dbl>,
…
