…
날짜 변수 생성

all_data %>% mutate(year = year(datetime), 
                    month = month(datetime),
                    wday = wday(datetime),
                    day = day(datetime), 
                    hour = hour(datetime)) %>% 
    select(year, month, wday, day, holiday, workingday, everything()) -> all_data
all_data

## # A tibble: 17,379 x 15
##     year month  wday   day holiday workingday datetime            season weather
##    <int> <int> <int> <int> <fct>   <fct>      <dttm>              <fct>  <fct>  
##  1  2011     1     7     1 0       0          2011-01-01 00:00:00 winter 1      
##  2  2011     1     7     1 0       0          2011-01-01 01:00:00 winter 1      
##  3  2011     1     7     1 0       0          2011-01-01 02:00:00 winter 1      
##  4  2011     1     7     1 0       0          2011-01-01 03:00:00 winter 1      
##  5  2011     1     7     1 0       0          2011-01-01 04:00:00 winter 1      
##  6  2011     1     7     1 0       0          2011-01-01 05:00:00 winter 2      
##  7  2011     1     7     1 0       0          2011-01-01 06:00:00 winter 1      
##  8  2011     1     7     1 0       0          2011-01-01 07:00:00 winter 1      
##  9  2011     1     7     1 0       0          2011-01-01 08:00:00 winter 1      
## 10  2011     1     7     1 0       0          2011-01-01 09:00:00 winter 1      
## # ... with 17,369 more rows, and 6 more variables: temp <dbl>, atemp <dbl>,
## #   humidity <dbl>, windspeed <dbl>, count <dbl>, hour <int>

wday, month factor로 변환

all_data$wday <- factor(all_data$wday, labels = c('Sun', 'Mon', 'Tue', 'Wed', 'Thur', 'Fri', 'Sat'))
all_data$month <- as.factor(all_data$month)
all_data

## # A tibble: 17,379 x 15
##     year month wday    day holiday workingday datetime            season weather
##    <int> <fct> <fct> <int> <fct>   <fct>      <dttm>              <fct>  <fct>  
##  1  2011 1     Sat       1 0       0          2011-01-01 00:00:00 winter 1      
##  2  2011 1     Sat       1 0       0          2011-01-01 01:00:00 winter 1      
##  3  2011 1     Sat       1 0       0          2011-01-01 02:00:00 winter 1      
##  4  2011 1     Sat       1 0       0          2011-01-01 03:00:00 winter 1      
##  5  2011 1     Sat       1 0       0          2011-01-01 04:00:00 winter 1      
##  6  2011 1     Sat       1 0       0          2011-01-01 05:00:00 winter 2      
##  7  2011 1     Sat       1 0       0          2011-01-01 06:00:00 winter 1      
##  8  2011 1     Sat       1 0       0          2011-01-01 07:00:00 winter 1      
##  9  2011 1     Sat       1 0       0          2011-01-01 08:00:00 winter 1      
## 10  2011 1     Sat       1 0       0          2011-01-01 09:00:00 winter 1      
## # ... with 17,369 more rows, and 6 more variables: temp <dbl>, atemp <dbl>,
## #   humidity <dbl>, windspeed <dbl>, count <dbl>, hour <int>
…
